{
  "presets": [
    "@babel/preset-env",
    "@babel/preset-react"
  ],
  "plugins": [
    ["module-resolver", {
      "root": ["./"],
      "alias": {
        "Common": "../common",
        "@/graphql": "./src/graphql",
        "@": "./src/js"
      }
    }],
    "react-hot-loader/babel",
<<<<<<< Updated upstream
    "import-graphql",
    ["@babel/plugin-proposal-class-properties", { "loose" : true}],
    "babel-plugin-styled-components",
    "@babel/plugin-transform-arrow-functions",
    "@babel/plugin-proposal-optional-chaining"
=======
    "babel-plugin-styled-components",
    "transform-es2015-arrow-functions"
>>>>>>> Stashed changes
  ]
}
